<?xml version="1.0" standalone="no"?>
<!DOCTYPE svg PUBLIC "-//W3C//DTD SVG 1.1//EN" "http://www.w3.org/Graphics/SVG/1.1/DTD/svg11.dtd">
<svg xmlns="http://www.w3.org/2000/svg">
  <metadata>Copyright (C) 2018 by original authors @ fontello.com</metadata>
  <defs>
    <font id="fontello" horiz-adv-x="1000">
      <font-face font-family="fontello" font-weight="400" font-stretch="normal" units-per-em="1000" ascent="850"
                 descent="-150"/>
      <missing-glyph horiz-adv-x="1000"/>
      <glyph glyph-name="perm-o" unicode="&#xe800;"
             d="M468-138h-163l-85 6-101 12c-58 10-68 27-88 39-21 13-19 60-19 60s10 67 43 126c33 58 75 94 75 94s58 56 110 82c53 26 129 48 129 48l99-110-108-121 86-215 94-2 88 215-94 126 99 107c0 0 100-23 140-48 41-24 89-57 113-82 24-25 57-62 71-89 30-46 35-101 35-101s11-66-21-83c0 0-14-20-90-39-76-19-100-17-100-17l-114-8h-111-88z m28 978c-121 0-219-98-219-219 0-121 98-219 219-219 121 0 219 98 219 219 0 121-98 219-219 219z"
             horiz-adv-x="1000"/>

      <glyph glyph-name="eventv2-o" unicode="&#xe801;"
             d="M468-150h-163l-85 6-101 10c-58 10-68 25-88 37-21 11-19 55-19 55s10 63 43 118c33 55 75 88 75 88s45 58 98 83 68-28 68-28 33-48 49-348l74 0c-15 394-75 410-75 410 66 45 291 32 312 7 0 0-50-25-64-413h68c17 285 54 342 54 342s15 52 55 29 93-59 117-82c24-24 57-58 71-83 29-43 35-95 35-95s11-61-21-76c0 0-14-19-90-37-76-17-100-16-100-16l-114-7h-111-88z m-99 531c83-62 183-52 262 0s81 178 81 178 36 14-213 13-211-13-211-13-3-115 81-178z m-145 207h86 369 89c1 6 14 13 3 17-7 2-37 13-38 19-8 66-36 89-36 89l-102-19 27 96c0 0-45 29-65 18l1 30c-20 18-114 15-120-1v-22c0 0-53-7-65-25l17-99-99 24c0 0-27-47-35-91-1-7-32-13-32-19 0-8-2-11 0-17z m137 134l-22 49c0 0-25-2-33-25l55-24z m268 0l40 25c-9 20-27 24-27 24l-13-49z"
             horiz-adv-x="1000"/>

      <glyph glyph-name="prov-o" unicode="&#xe802;"
             d="M281-130c0 0-134 5-176 17-42 12-78 38-78 38-35 13-3 92-3 92s4 24 32 85c27 59 61 95 61 95s59 74 112 99l57 23 59 9c18-50 82-97 82-97l12 96c4 2 54-86 54-86l-76-141 70-220h43l68 220-86 143c0 0 38 93 44 86l20-95c0 0 60 54 73 103l44-7c0 0 34-6 70-26 40-22 116-103 116-103s36-39 71-95c30-68 35-96 35-96s26-73-6-89c0 0-27-16-79-32s-173-19-173-19h-222-224v0z m427 733c0-112-91-203-203-203-112 0-203 91-203 203s91 204 203 204c112 0 203-91 203-204z"
             horiz-adv-x="1000"/>

      <glyph glyph-name="eq-l-o" unicode="&#xe803;"
             d="M974 18v229c-2-1-4-1-7-1h-149v-28c0-15-5-29-14-39-10-13-24-20-39-20h-61c-15 0-29 7-39 20-9 10-14 24-14 39v28h-302v-28c0-15-5-29-14-39-10-13-24-20-39-20h-61c-15 0-29 7-39 20-9 10-14 24-14 39v28h-149c-2 0-5 0-7 1v-229c0-18 15-33 33-33h882c18 0 33 15 33 33z m-948 255c2 0 4 0 7 0h149v54c0 15 5 29 14 39 10 13 24 20 39 20h61c15 0 29-7 39-20 9-10 14-24 14-39v-54h302v54c0 15 5 29 14 39 10 13 24 20 39 20h61c15 0 29-7 39-20 9-10 14-24 14-39v-54h149c3 0 5 0 7 0 15 3 26 16 26 32v203c0 18-15 33-33 33h-205v13 13 92c0 31-26 56-56 56h-412c-30 0-55-25-55-56v-92-13-13h-206c-18 0-33-15-33-33v-203c0-16 11-29 26-32z m265 281v13 70c12-17 35-28 61-28 11 0 22 2 31 5 12 5 25 5 36 0 10-3 20-5 32-5s22 2 31 5c12 5 25 5 36 0 10-3 20-5 31-5 12 0 22 2 32 5 11 5 24 5 36 0 9-3 20-5 31-5 26 0 49 11 61 28v-70-13-13h-418v13z m474-369c15 0 26 15 26 33v28 13 14 54c0 18-11 33-26 33h-61c-15 0-26-15-26-33v-54-14-13-28c0-18 11-33 26-33h61z m-469 0c15 0 27 15 27 33v28 13 14 54c0 18-12 33-27 33h-61c-15 0-26-15-26-33v-54-14-13-28c0-18 11-33 26-33h61z"
             horiz-adv-x="1000"/>

      <glyph glyph-name="eventv1-o" unicode="&#xe804;"
             d="M468-150h-163l-85 6-101 10c-58 10-68 25-88 37-21 11-19 55-19 55s10 63 43 118c33 55 75 88 75 88s45 58 98 83c52 24 68-28 68-28s33-48 49-348l247 4 6 112-185-2c-8 317-69 296-69 296 66 45 291 32 312 7 0 0-50-25-64-413h68c17 285 54 342 54 342s15 52 55 29c40-23 93-59 117-82 24-24 57-58 71-83 29-43 35-95 35-95s11-61-21-76c0 0-14-19-90-37-76-17-100-16-100-16l-114-7h-111-88z m-99 531c83-62 183-52 262 0 78 52 81 178 81 178s36 14-213 13c-248 0-211-13-211-13s-3-115 81-178z m-145 207h86 369 89c1 6 14 13 3 17-7 2-37 13-38 19-8 66-36 89-36 89l-102-19 27 96c0 0-45 29-65 18l1 30c-20 18-114 15-120-1v-22c0 0-53-7-65-25l17-99-99 24c0 0-27-47-35-91-1-7-32-13-32-19 0-8-2-11 0-17z m137 134l-22 49c0 0-25-2-33-25l55-24z m268 0l40 25c-9 20-27 24-27 24l-13-49z"
             horiz-adv-x="1000"/>

      <glyph glyph-name="small-box-o" unicode="&#xe807;"
             d="M259 598c141-129 364-119 467 12l0-31c23-186-510-179-471 4l4 15z m-8-122c-40-185 503-192 480-4l-1 31c-104-133-332-142-475-12l-4-15z m250-348c-40-185 503-192 479-4l0 32c-105-133-332-143-475-12l-4-16z m0-108c-40-185 503-192 479-4l0 32c-105-133-332-143-475-12l-4-16z m-487 83c-40-186 503-193 480-4l-1 31c-104-133-331-142-475-12l-4-15z m232 256h20 20l-16 16-24 16v-32z m249-80l12 26h-38l26-26z m247 92c-132 0-239-62-239-140 0-77 107-142 239-142 132 0 239 65 239 142 0 70-107 140-239 140z m84-63l-64 0 1-47c0 0 107 1 107-50 0-58-107-58-107-58v-13c-23-18-46 0-46 0l-1 13c0 0-80 0-103 0-36 0-38 24-5 26l109 0v53c-133-8-159 102 0 103v8c0 0 22 16 46 0v-8c0 0 28 0 62 0 43 0 41-26 1-27z m-109-1v-48c0 0-12 0-22 0-51 4-52 43 0 47 5 0 22 1 22 1z m60-78c63-4 59-46 0-51-10-1-13-1-13-1l-1 52c0 0 7 0 14 0z m-521 123c-132 0-239-63-239-140s107-140 239-140c132 0 239 63 239 140s-107 140-239 140z m75-57l-63 0 0-48c0 0 107 1 108-50 0-57-108-58-108-58v-13c-23-17-45 0-45 0l-1 13c0 0-80 1-104 1-35-1-38 23-5 25l110 1v52c-134-7-159 102 0 103v8c0 0 22 16 45 0v-8c0 0 28 0 63 0 42 0 40-26 0-26z m-110-3v-49c0 0-11 0-21 1-50 3-52 43 0 46 6 1 21 2 21 2z m63-77c64-4 60-46 0-51-9-1-13-1-13-1l-1 53c0 0 8 0 14-1z m208 618c-132 0-239-62-239-140 0-77 107-140 239-140 132 0 240 63 240 140 0 78-108 140-240 140z m76-57l-63 0 0-48c0 0 107 1 107-50 0-57-107-57-107-57v-14c-23-17-46 0-46 0l-1 14c0 0-80 0-103 0-36 0-38 24-5 26l109 0v52c-133-7-159 103 0 104v7c0 0 22 17 46 0v-8c0 0 28 0 62 0 43 0 41-26 1-26z m-111-1v-48c0 0-10 0-20 0-51 4-52 44 0 47 5 1 20 1 20 1z m64-76c63-4 59-46 0-51-10-1-13-1-13-1l-1 52c0 0 7 0 14 0z"
             horiz-adv-x="1000"/>

      <glyph glyph-name="eq-h-o" unicode="&#xe808;"
             d="M199 486l544-140 131-175-26-34-103 137-527 101-19 111z m-11 70l101-21v217c0 0-36 0-69 0-21 0-41 2-46-28-2-16 14-168 14-168z m180 201v-240l358-106c0 0-30 164-57 256s-112 90-112 90h-189z m378-595c6 3 4 44-2 52s-28 14-28 14l-484 76 22-105c0 0 84-11 128-66 36-46 38-126 38-126h64c0 0 1 41 7 61 2 5 25 74 77 100 0 0 88 51 178-6z m-721-150h39l1 41c22 124 123 137 123 137s-58 294-67 337c-16 42-46 34-46 34s-34 8-50-34c0-18 0-515 0-515z m213 134c-70 0-127-56-127-126s57-126 127-126 127 57 127 126-57 126-127 126z m608-12c0 0-27-57-17-123 8-37 26-114 150-124 89-5 82 0 82 0l-51 471-164-224z m-191 7c-70 0-127-56-127-126s57-126 127-126c70 0 127 57 127 126s-57 126-127 126z"
             horiz-adv-x="1074"/>

      <glyph glyph-name="bank-o" unicode="&#xe809;"
             d="M188 550h753c0 0 33-23 0-53-22 0-733 0-753 0-33 24 0 53 0 53z m30 59h682c0 0 21-14 0-27-14 0-668-1-682 0-20 11 0 27 0 27z m72 23h550l-275 173-275-173z m244-653h413c0 0 17-23 0-41-8 0-479-2-463-1 40 21 50 42 50 42z m-393-70h847c0 0 33-30 0-53-13 0-825 0-847 0-28 25 0 53 0 53z m336 565h176c0 0 22-17 0-36-7 0-108-1-120 0-16 18-56 36-56 36z m241 0h159c0 0 22-17 0-36-7 0-148 0-159 0-22 19 0 36 0 36z m0-436h159c0 0 22-16 0-35-7 0-148 0-159 0-22 19 0 35 0 35z m-127 0h61c0 0 22-15 0-34-7 0-75-2-87-2 19 18 26 36 26 36z m-44 377h82v-353h-32c93 188-50 353-50 353z m200 0h100v-353h-100v353z m-451 82c163 0 295-132 295-295 0-164-132-296-295-296s-296 132-296 296c0 163 132 295 296 295z m111-111c-39 0-72 0-72 0v17c-27 35-53 0-53 0v-16c-183-3-154-234 0-219v-110l-126-1c-38-4-35-55 6-54 27 0 120-1 120-1l0-29c0 0 27-36 53 0v29c0 0 124 1 124 122 0 107-124 105-124 105l0 102 73-1c46 1 49 56-1 56z m-148-61c-60-7-58-91 0-99 11-1 23 0 23 0v102c0 0-17-1-23-3z m75-157l1-110c0 0 4-1 15 2 69 11 73 99 0 107-8 1-16 1-16 1z"
             horiz-adv-x="1000"/>

      <glyph glyph-name="contr-o" unicode="&#xe80a;"
             d="M699 688c0 21-15 42-40 43l-527-1c-18-1-34-18-35-32l0-695c0-15 15-34 34-37l535 1c19 4 32 19 34 33l-1 96c12 42 69 44 81 0v-103c0-54-61-102-115-107l-544 2c-58 9-97 45-108 109v704c11 62 55 106 125 109l527 1c59 0 115-58 115-114v-234c-17-45-64-40-80 0l-1 225z m81-689m-607 531h447v40h-447v-40z m0-80h447v40h-447v-40z m0-80h367v40h-367v-40z m56-258c10 6 84 132 91 126 6-4 3-66 9-82 3-15 17-34 40-22s63 68 68 63c-1-16 0-48 0-48s6-18 31-15c22 4 41 18 41 18 19 16 4 36-13 36l-17-6c0 0 2 44-11 53s-22 15-42 8c-18-9-62-61-62-61s-3 80-14 90-28 16-46 6c-35-19-101-131-106-147s19-27 31-19z m479 58l279 280-83 84-284-284-22-114 110 34z"
             horiz-adv-x="1000"/>

      <glyph glyph-name="equ-o" unicode="&#xe80b;"
             d="M250 43l250 140 250-140h-500z m-43-140h27l1 94h-28m60-94h93v94h-93v-94z m120 0h33l1 94h-34m186-94h33l0 94h-33m214-94h29l0 94h-29m-334-94h87v94h-87v-94z m187 0h93v94h-93v-94z m-107 921c-9 19-47 20-57 0l0-59-6 0c0 0-5 2-9-6l0-16h-39l-78-142 67-137 32-1 0-21c2-7 4-9 10-11l25 0 0-23c-50-10-76-56-76-96 0-31 12-60 56-79l-316-190h-89c-13 0-13-40 0-40h84l0-93h-89c0 0-27-27 4-40h907c30 19-5 43-5 43l-76 0-1 90h76c22 7 14 40 1 40h-90l-314 195c42 14 55 70 42 98 0 0-31 22-37-6-6-27-20-61-51-61-31 0-49 17-51 49-2 31 32 52 80 52l1 62 23 0c7 1 8 4 8 13l1 22 31-1 59 138-73 139h-36v14c-7 7-9 6-9 6h-6l1 61z"
             horiz-adv-x="1000"/>

      <glyph glyph-name="form-o" unicode="&#xe80c;"
             d="M838-150c12 0 22 10 22 22v678h-253c-37 0-67 30-67 66v234h-378c-12 0-22-10-22-22v-956c0-12 10-22 22-22h676z m-579 571h488v-391h-488v391z m263-275h186v-77h-186v77z m-224 120h185v-81h-185v81z m0-120h185v-77h-185v77z m224 236h186v-77h-186v77z m0-116h186v-81h-186v81z m-224 116h185v-77h-185v77z m291 234v183l214-200h-196c-10 0-18 8-18 17z"
             horiz-adv-x="1000"/>

      <glyph glyph-name="proj-o" unicode="&#xe80d;"
             d="M279 722h1029v-866h-1046c-170 0-149 130-149 130s5 123 163 121l3 615z m-245 21v-738c0 0 28 154 170 157v677c-119 0-170-96-170-96z m844-682l0 21c0 10-7 17-17 18l0 79 121 33c21-20 47-32 76-32 55 0 101 44 112 104l117-1 0 61-119 1c-13 55-57 97-110 97-31 0-58-14-79-37l-118 33 0 90c10 2 18 10 18 19l0 24c0 10-10 21-22 21h-2c-11 0-30-11-30-21l0-23c0-7 9-14 18-17l0-88-476 132-5-20-34 12c-5 1-10-2-11-7-1-1-1-2-1-3 0-4 3-8 7-10l34-11-3-10 59-52 430-116 0-34-36 0c-9 0-17-8-17-19 0-11 8-19 17-19h36l0-26-430-116-59-52 2-10-34-12c-3-1-6-5-6-9 0-1 0-2 0-3 2-6 7-9 11-7l34 11 6-19 476 131 0-76c-9-3-18-9-18-17l0-20c0-11 18-19 30-19h2c12 1 21 8 21 19z m-17 223l35 0c10 0 18 9 18 20 0 11-8 20-18 20l-36 0v29l167-45-166-44 0 20z m192-52l-19 76 20 77-54 15c16 13 36 22 58 21 53 0 96-49 96-110 0-61-43-111-96-111-20 0-38 7-54 18l49 14z"
             horiz-adv-x="1336"/>

      <glyph glyph-name="transaction" unicode="&#xe80e;"
             d="M0 715l186 141v-70h267v-63c-125-11-198-82-198-82h-66v-72l-189 146z m811-551v-79h-66c0 0-73-78-198-89v-69h267v-77l186 154-189 160z m-630 190c0-169 137-306 306-306s305 137 305 306-137 305-305 305-306-137-306-305z m422 133l-75 0 0-105c0 0 128 2 128-109 0-125-128-125-128-125v-30c-28-38-55 0-55 0l-1 30c0 0-95 0-124 0-42 0-45 52-6 57l131 0v114c-159-16-189 223 0 227v16c0 0 27 36 55 0v-18c0 0 33 0 74 0 51 0 49-57 1-57z m-130-3v-105c0 0-12-1-24 0-60 8-62 95 0 102 7 2 24 3 24 3z m70-166c75-9 71-100 0-111-12-2-16-2-16-2l-1 114c0 0 9 0 17-1z"
             horiz-adv-x="1000"/>
    </font>
  </defs>
</svg>
